{
  "pageSize": 10,
  "rows": [
    {
      "organId": "c8a2b3ae51ae20910151c3d2cfdb000b",
      "outletId": "dl001",
      "orgName": "海南椰城有限公司",
      "outletName": "椰城国兴分店",
      "orderNo": "1450753020645962225",
      "createTime": "2015-12-22 10:57:00",
      "paymentTime": "2016-02-04 11:46:34",
      "basicState": "已完成",
      "priceTotal": 0.01,
      "deliveryFeeTotal": 0.01,
      "preferentialTotal": 0,
      "feeTotal": 0.02,
      "couponsFee": 0,
      "payByScore": 0,
      "paymentPrefrFee": 0,
      "discountDeliveryFeeTotal": 0,
      "paidTotal": 0,
      "paymentType": "在线支付",
      "paymentBank": "线下",
      "paymentState": "已支付",
      "refundState": "未退款",
      "refundAmount": 0,
      "prodName": "椰城自制力加啤酒",
      "flag": "1",
      "aftersaleNo": "",
      "supplierName": "",
      "amountState": "未结算"
    },
    {
      "organId": "c8a2b3ae51ae20910151c3d2cfdb000b",
      "outletId": "dl001",
      "orgName": "海南椰城有限公司",
      "outletName": "椰城国兴分店",
      "orderNo": "1450902156510455654",
      "paymentSequence": "2015122421001004290035092036",
      "createTime": "2015-12-24 04:22:36",
      "paymentTime": "2016-02-04 04:30:25",
      "priceTotal": 0.01,
      "deliveryFeeTotal": 0.01,
      "preferentialTotal": 0,
      "feeTotal": 0.02,
      "couponsFee": 0,
      "payByScore": 0,
      "paymentPrefrFee": 0,
      "discountDeliveryFeeTotal": 0,
      "paidTotal": 0.02,
      "paymentType": "在线支付",
      "paymentBank": "支付宝",
      "paymentState": "已支付",
      "refundState": "未退款",
      "refundAmount": 0,
      "prodName": "椰城自制力加啤酒",
      "flag": "1",
      "aftersaleNo": "",
      "supplierName": "",
      "amountState": "未结算"
    },
    {
      "organId": "c8a2b3ae51c8842a0151cc8010f1000f",
      "outletId": "001",
      "orgName": "jordan体育",
      "outletName": "海口jordan",
      "orderNo": "1450936487252411987",
      "paymentSequence": "2015122421001004530007537450",
      "createTime": "2015-12-24 13:54:47",
      "paymentTime": "2016-02-04 13:59:32",
      "basicState": "已完成",
      "priceTotal": 100.01,
      "deliveryFeeTotal": 0,
      "preferentialTotal": 100,
      "feeTotal": 0.01,
      "couponsFee": 100,
      "payByScore": 0,
      "paymentPrefrFee": 0,
      "discountDeliveryFeeTotal": 0,
      "paidTotal": 0.01,
      "paymentType": "在线支付",
      "paymentBank": "支付宝",
      "paymentState": "已支付",
      "refundState": "未退款",
      "refundAmount": 0,
      "prodName": "jordan",
      "flag": "1",
      "aftersaleNo": "",
      "supplierName": "",
      "amountState": "未结算"
    },
    {
      "organId": "c8a2b3ae51ae20910151c3d2cfdb000b",
      "outletId": "dl001",
      "orgName": "海南椰城有限公司",
      "outletName": "椰城国兴分店",
      "orderNo": "1450753020645962225",
      "createTime": "2015-12-22 10:57:00",
      "paymentTime": "2016-02-04 11:46:34",
      "basicState": "已完成",
      "priceTotal": 0.01,
      "deliveryFeeTotal": 0.01,
      "preferentialTotal": 0,
      "feeTotal": 0.02,
      "couponsFee": 0,
      "payByScore": 0,
      "paymentPrefrFee": 0,
      "discountDeliveryFeeTotal": 0,
      "paidTotal": 0,
      "paymentType": "在线支付",
      "paymentBank": "线下",
      "paymentState": "已支付",
      "refundState": "未退款",
      "refundAmount": 0,
      "prodName": "椰城自制力加啤酒",
      "flag": "1",
      "aftersaleNo": "",
      "supplierName": "",
      "amountState": "未结算"
    },
    {
      "organId": "c8a2b3ae51ae20910151c3d2cfdb000b",
      "outletId": "dl001",
      "orgName": "海南椰城有限公司",
      "outletName": "椰城国兴分店",
      "orderNo": "1450902156510455654",
      "paymentSequence": "2015122421001004290035092036",
      "createTime": "2015-12-24 04:22:36",
      "paymentTime": "2016-02-04 04:30:25",
      "priceTotal": 0.01,
      "deliveryFeeTotal": 0.01,
      "preferentialTotal": 0,
      "feeTotal": 0.02,
      "couponsFee": 0,
      "payByScore": 0,
      "paymentPrefrFee": 0,
      "discountDeliveryFeeTotal": 0,
      "paidTotal": 0.02,
      "paymentType": "在线支付",
      "paymentBank": "支付宝",
      "paymentState": "已支付",
      "refundState": "未退款",
      "refundAmount": 0,
      "prodName": "椰城自制力加啤酒",
      "flag": "1",
      "aftersaleNo": "",
      "supplierName": "",
      "amountState": "未结算"
    },
    {
      "organId": "c8a2b3ae51c8842a0151cc8010f1000f",
      "outletId": "001",
      "orgName": "jordan体育",
      "outletName": "海口jordan",
      "orderNo": "1450936487252411987",
      "paymentSequence": "2015122421001004530007537450",
      "createTime": "2015-12-24 13:54:47",
      "paymentTime": "2016-02-04 13:59:32",
      "basicState": "已完成",
      "priceTotal": 100.01,
      "deliveryFeeTotal": 0,
      "preferentialTotal": 100,
      "feeTotal": 0.01,
      "couponsFee": 100,
      "payByScore": 0,
      "paymentPrefrFee": 0,
      "discountDeliveryFeeTotal": 0,
      "paidTotal": 0.01,
      "paymentType": "在线支付",
      "paymentBank": "支付宝",
      "paymentState": "已支付",
      "refundState": "未退款",
      "refundAmount": 0,
      "prodName": "jordan",
      "flag": "1",
      "aftersaleNo": "",
      "supplierName": "",
      "amountState": "未结算"
    },
    {
      "organId": "c8a2b3ae51ae20910151c3d2cfdb000b",
      "outletId": "dl001",
      "orgName": "海南椰城有限公司",
      "outletName": "椰城国兴分店",
      "orderNo": "1450753020645962225",
      "createTime": "2015-12-22 10:57:00",
      "paymentTime": "2016-02-04 11:46:34",
      "basicState": "已完成",
      "priceTotal": 0.01,
      "deliveryFeeTotal": 0.01,
      "preferentialTotal": 0,
      "feeTotal": 0.02,
      "couponsFee": 0,
      "payByScore": 0,
      "paymentPrefrFee": 0,
      "discountDeliveryFeeTotal": 0,
      "paidTotal": 0,
      "paymentType": "在线支付",
      "paymentBank": "线下",
      "paymentState": "已支付",
      "refundState": "未退款",
      "refundAmount": 0,
      "prodName": "椰城自制力加啤酒",
      "flag": "1",
      "aftersaleNo": "",
      "supplierName": "",
      "amountState": "未结算"
    },
    {
      "organId": "c8a2b3ae51ae20910151c3d2cfdb000b",
      "outletId": "dl001",
      "orgName": "海南椰城有限公司",
      "outletName": "椰城国兴分店",
      "orderNo": "1450902156510455654",
      "paymentSequence": "2015122421001004290035092036",
      "createTime": "2015-12-24 04:22:36",
      "paymentTime": "2016-02-04 04:30:25",
      "priceTotal": 0.01,
      "deliveryFeeTotal": 0.01,
      "preferentialTotal": 0,
      "feeTotal": 0.02,
      "couponsFee": 0,
      "payByScore": 0,
      "paymentPrefrFee": 0,
      "discountDeliveryFeeTotal": 0,
      "paidTotal": 0.02,
      "paymentType": "在线支付",
      "paymentBank": "支付宝",
      "paymentState": "已支付",
      "refundState": "未退款",
      "refundAmount": 0,
      "prodName": "椰城自制力加啤酒",
      "flag": "1",
      "aftersaleNo": "",
      "supplierName": "",
      "amountState": "未结算"
    },
    {
      "organId": "c8a2b3ae51c8842a0151cc8010f1000f",
      "outletId": "001",
      "orgName": "jordan体育",
      "outletName": "海口jordan",
      "orderNo": "1450936487252411987",
      "paymentSequence": "2015122421001004530007537450",
      "createTime": "2015-12-24 13:54:47",
      "paymentTime": "2016-02-04 13:59:32",
      "basicState": "已完成",
      "priceTotal": 100.01,
      "deliveryFeeTotal": 0,
      "preferentialTotal": 100,
      "feeTotal": 0.01,
      "couponsFee": 100,
      "payByScore": 0,
      "paymentPrefrFee": 0,
      "discountDeliveryFeeTotal": 0,
      "paidTotal": 0.01,
      "paymentType": "在线支付",
      "paymentBank": "支付宝",
      "paymentState": "已支付",
      "refundState": "未退款",
      "refundAmount": 0,
      "prodName": "jordan",
      "flag": "1",
      "aftersaleNo": "",
      "supplierName": "",
      "amountState": "未结算"
    },
    {
      "organId": "c8a2b3ae51ae20910151c3d2cfdb000b",
      "outletId": "dl001",
      "orgName": "海南椰城有限公司",
      "outletName": "椰城国兴分店",
      "orderNo": "1450753020645962225",
      "createTime": "2015-12-22 10:57:00",
      "paymentTime": "2016-02-04 11:46:34",
      "basicState": "已完成",
      "priceTotal": 0.01,
      "deliveryFeeTotal": 0.01,
      "preferentialTotal": 0,
      "feeTotal": 0.02,
      "couponsFee": 0,
      "payByScore": 0,
      "paymentPrefrFee": 0,
      "discountDeliveryFeeTotal": 0,
      "paidTotal": 0,
      "paymentType": "在线支付",
      "paymentBank": "线下",
      "paymentState": "已支付",
      "refundState": "未退款",
      "refundAmount": 0,
      "prodName": "椰城自制力加啤酒",
      "flag": "1",
      "aftersaleNo": "",
      "supplierName": "",
      "amountState": "未结算"
    }
  ],
  "total": 650,
  "page": 65,
  "pageNo": 1,
  "hasPrevious": false,
  "hasNext": true
}